module gitlab.com/gaia-x/data-infrastructure-federation-services/cam

go 1.19

// runtime dependencies
require (
	clouditor.io/clouditor v1.5.3
	github.com/Fraunhofer-AISEC/cmc v0.4.0
	github.com/go-co-op/gocron v1.17.0
	github.com/golang-jwt/jwt/v4 v4.5.0
	github.com/google/uuid v1.3.0
	github.com/gophercloud/gophercloud v0.25.0
	github.com/grpc-ecosystem/go-grpc-middleware v1.3.0
	github.com/grpc-ecosystem/grpc-gateway/v2 v2.11.0
	github.com/oxisto/oauth2go v0.7.0
	github.com/sirupsen/logrus v1.9.0
	github.com/spf13/cobra v1.5.0
	github.com/spf13/viper v1.13.0
	golang.org/x/exp v0.0.0-20220722155223-a9213eeb770e
	golang.org/x/oauth2 v0.6.0
	google.golang.org/genproto v0.0.0-20230110181048-76db0878b65f
	google.golang.org/grpc v1.53.0
	google.golang.org/protobuf v1.28.1
	gorm.io/gorm v1.23.8
	k8s.io/client-go v0.25.0
)

// testing dependencies
require (
	github.com/cucumber/godog v0.12.5
	github.com/stretchr/testify v1.8.0
)

// tool dependencies
require (
	github.com/boumenot/gocover-cobertura v1.2.0
	github.com/google/addlicense v1.0.0
	github.com/google/gnostic v0.6.9
	github.com/jstemmer/go-junit-report v1.0.0
	github.com/srikrsna/protoc-gen-gotag v0.6.2
	google.golang.org/grpc/cmd/protoc-gen-go-grpc v1.2.0
)

require (
	github.com/MicahParks/keyfunc v1.2.0 // indirect
	github.com/OneOfOne/xxhash v1.2.8 // indirect
	github.com/PuerkitoBio/purell v1.1.1 // indirect
	github.com/PuerkitoBio/urlesc v0.0.0-20170810143723-de5bf2ad4578 // indirect
	github.com/agnivade/levenshtein v1.1.1 // indirect
	github.com/aws/aws-sdk-go-v2 v1.16.11 // indirect
	github.com/aws/aws-sdk-go-v2/aws/protocol/eventstream v1.4.3 // indirect
	github.com/aws/aws-sdk-go-v2/config v1.17.0 // indirect
	github.com/aws/aws-sdk-go-v2/credentials v1.12.13 // indirect
	github.com/aws/aws-sdk-go-v2/feature/ec2/imds v1.12.12 // indirect
	github.com/aws/aws-sdk-go-v2/internal/configsources v1.1.18 // indirect
	github.com/aws/aws-sdk-go-v2/internal/endpoints/v2 v2.4.12 // indirect
	github.com/aws/aws-sdk-go-v2/internal/ini v1.3.19 // indirect
	github.com/aws/aws-sdk-go-v2/internal/v4a v1.0.5 // indirect
	github.com/aws/aws-sdk-go-v2/service/ec2 v1.54.0 // indirect
	github.com/aws/aws-sdk-go-v2/service/internal/accept-encoding v1.9.3 // indirect
	github.com/aws/aws-sdk-go-v2/service/internal/checksum v1.1.9 // indirect
	github.com/aws/aws-sdk-go-v2/service/internal/presigned-url v1.9.12 // indirect
	github.com/aws/aws-sdk-go-v2/service/internal/s3shared v1.13.8 // indirect
	github.com/aws/aws-sdk-go-v2/service/lambda v1.24.0 // indirect
	github.com/aws/aws-sdk-go-v2/service/s3 v1.27.1 // indirect
	github.com/aws/aws-sdk-go-v2/service/sso v1.11.16 // indirect
	github.com/aws/aws-sdk-go-v2/service/sts v1.16.13 // indirect
	github.com/aws/smithy-go v1.13.2 // indirect
	github.com/bmatcuk/doublestar/v4 v4.0.2 // indirect
	github.com/cucumber/gherkin-go/v19 v19.0.3 // indirect
	github.com/cucumber/messages-go/v16 v16.0.1 // indirect
	github.com/davecgh/go-spew v1.1.1 // indirect
	github.com/emicklei/go-restful/v3 v3.8.0 // indirect
	github.com/fatih/structtag v1.2.0 // indirect
	github.com/fsnotify/fsnotify v1.5.4 // indirect
	github.com/ghodss/yaml v1.0.0 // indirect
	github.com/glebarez/go-sqlite v1.17.3 // indirect
	github.com/glebarez/sqlite v1.4.6 // indirect
	github.com/go-logr/logr v1.2.3 // indirect
	github.com/go-openapi/jsonpointer v0.19.5 // indirect
	github.com/go-openapi/jsonreference v0.19.5 // indirect
	github.com/go-openapi/swag v0.19.14 // indirect
	github.com/gobwas/glob v0.2.3 // indirect
	github.com/gofrs/uuid v4.0.0+incompatible // indirect
	github.com/gogo/protobuf v1.3.2 // indirect
	github.com/golang/glog v1.0.0 // indirect
	github.com/golang/protobuf v1.5.2 // indirect
	github.com/google/go-tpm v0.3.3 // indirect
	github.com/google/gofuzz v1.2.0 // indirect
	github.com/hashicorp/go-immutable-radix v1.3.1 // indirect
	github.com/hashicorp/go-memdb v1.3.0 // indirect
	github.com/hashicorp/golang-lru v0.5.4 // indirect
	github.com/hashicorp/hcl v1.0.0 // indirect
	github.com/imdario/mergo v0.3.12 // indirect
	github.com/inconshreveable/mousetrap v1.0.0 // indirect
	github.com/jackc/chunkreader/v2 v2.0.1 // indirect
	github.com/jackc/pgconn v1.11.0 // indirect
	github.com/jackc/pgio v1.0.0 // indirect
	github.com/jackc/pgpassfile v1.0.0 // indirect
	github.com/jackc/pgproto3/v2 v2.2.0 // indirect
	github.com/jackc/pgservicefile v0.0.0-20200714003250-2b9c44734f2b // indirect
	github.com/jackc/pgtype v1.10.0 // indirect
	github.com/jackc/pgx/v4 v4.15.0 // indirect
	github.com/jinzhu/inflection v1.0.0 // indirect
	github.com/jinzhu/now v1.1.5 // indirect
	github.com/jmespath/go-jmespath v0.4.0 // indirect
	github.com/josharian/intern v1.0.0 // indirect
	github.com/json-iterator/go v1.1.12 // indirect
	github.com/logrusorgru/aurora/v3 v3.0.0 // indirect
	github.com/lyft/protoc-gen-star v0.5.3 // indirect
	github.com/magiconair/properties v1.8.6 // indirect
	github.com/mailru/easyjson v0.7.6 // indirect
	github.com/mattn/go-isatty v0.0.14 // indirect
	github.com/mitchellh/mapstructure v1.5.0 // indirect
	github.com/modern-go/concurrent v0.0.0-20180306012644-bacd9c7ef1dd // indirect
	github.com/modern-go/reflect2 v1.0.2 // indirect
	github.com/munnerz/goautoneg v0.0.0-20191010083416-a7dc8b61c822 // indirect
	github.com/open-policy-agent/opa v0.44.0 // indirect
	github.com/pelletier/go-toml v1.9.5 // indirect
	github.com/pelletier/go-toml/v2 v2.0.5 // indirect
	github.com/pkg/errors v0.9.1 // indirect
	github.com/pmezard/go-difflib v1.0.0 // indirect
	github.com/rcrowley/go-metrics v0.0.0-20201227073835-cf1acfcdf475 // indirect
	github.com/remyoudompheng/bigfft v0.0.0-20200410134404-eec4a21b6bb0 // indirect
	github.com/robfig/cron/v3 v3.0.1 // indirect
	github.com/spf13/afero v1.8.2 // indirect
	github.com/spf13/cast v1.5.0 // indirect
	github.com/spf13/jwalterweatherman v1.1.0 // indirect
	github.com/spf13/pflag v1.0.5 // indirect
	github.com/subosito/gotenv v1.4.1 // indirect
	github.com/tchap/go-patricia/v2 v2.3.1 // indirect
	github.com/xeipuuv/gojsonpointer v0.0.0-20190905194746-02993c407bfb // indirect
	github.com/xeipuuv/gojsonreference v0.0.0-20180127040603-bd5ef7bd5415 // indirect
	github.com/yashtewari/glob-intersection v0.1.0 // indirect
	golang.org/x/crypto v0.7.0 // indirect
	golang.org/x/mod v0.8.0 // indirect
	golang.org/x/net v0.8.0 // indirect
	golang.org/x/sync v0.1.0 // indirect
	golang.org/x/sys v0.6.0 // indirect
	golang.org/x/term v0.6.0 // indirect
	golang.org/x/text v0.8.0 // indirect
	golang.org/x/time v0.0.0-20220210224613-90d013bbcef8 // indirect
	golang.org/x/tools v0.6.0 // indirect
	google.golang.org/appengine v1.6.7 // indirect
	gopkg.in/inf.v0 v0.9.1 // indirect
	gopkg.in/ini.v1 v1.67.0 // indirect
	gopkg.in/square/go-jose.v2 v2.6.0 // indirect
	gopkg.in/yaml.v2 v2.4.0 // indirect
	gopkg.in/yaml.v3 v3.0.1 // indirect
	gorm.io/driver/postgres v1.3.4 // indirect
	k8s.io/api v0.25.0 // indirect
	k8s.io/apimachinery v0.25.0 // indirect
	k8s.io/klog/v2 v2.70.1 // indirect
	k8s.io/kube-openapi v0.0.0-20220803162953-67bda5d908f1 // indirect
	k8s.io/utils v0.0.0-20220728103510-ee6ede2d64ed // indirect
	modernc.org/libc v1.16.8 // indirect
	modernc.org/mathutil v1.4.1 // indirect
	modernc.org/memory v1.1.1 // indirect
	modernc.org/sqlite v1.17.3 // indirect
	sigs.k8s.io/json v0.0.0-20220713155537-f223a00ba0e2 // indirect
	sigs.k8s.io/structured-merge-diff/v4 v4.2.3 // indirect
	sigs.k8s.io/yaml v1.3.0 // indirect
)
